[
  { "code": "ar", "language": "ar", "file": "ar.json", "name": "عربى", "dir": "rtl" },
  { "code": "be", "language": "be", "file": "be.json", "name": "Беларуская" },
  { "code": "bg", "language": "bg", "file": "bg.json", "name": "Bulgarian" },
  { "code": "ca", "language": "ca", "file": "ca.json", "name": "Català" },
  { "code": "cs", "language": "cs", "file": "cs.json", "name": "Čeština" },
  { "code": "de", "language": "de", "file": "de.json", "name": "Deutsch" },
  { "code": "en", "language": "en", "file": "en.json", "name": "English" },
  { "code": "es", "language": "es", "file": "es.json", "name": "Español" },
  { "code": "fa", "language": "fa", "file": "fa.json", "name": "Persian", "dir": "rtl" },
  { "code": "fi", "language": "fi", "file": "fi.json", "name": "Suomi" },
  { "code": "fr", "language": "fr", "file": "fr.json", "name": "Français" },
  { "code": "fur", "language": "fur", "file": "fur.json", "name": "Friulian" },
  { "code": "he", "language": "he", "file": "he.json", "name": "Hebrew", "dir": "rtl" },
  { "code": "hi", "language": "hi", "file": "hi.json", "name": "हिंदी" },
  { "code": "hu", "language": "hu", "file": "hu.json", "name": "Magyar" },
  { "code": "id", "language": "id", "file": "id.json", "name": "Indonesian" },
  { "code": "it", "language": "it", "file": "it.json", "name": "Italiano" },
  { "code": "ja", "language": "ja", "file": "ja.json", "name": "日本"},
  { "code": "kab", "language": "kab", "file": "kab.json", "name": "Taqbaylit" },
  { "code": "ko", "language": "ko", "file": "ko.json", "name": "한국어" },
  { "code": "nl", "language": "nl", "file": "nl.json", "name": "Nederlands" },
  { "code": "nn", "language": "nn", "file": "nn.json", "name": "Norsk nynorsk" },
  { "code": "pl", "language": "pl", "file": "pl.json", "name": "Polski" },
  {
    "code": "pt-br",
    "language": "pt-BR",
    "file": "pt_BR.json",
    "name": "Português do Brasil"
  },
  { "code": "pt", "language": "pt", "file": "pt.json", "name": "Português" },
  { "code": "ru", "language": "ru", "file": "ru.json", "name": "русский" },
  { "code": "sl", "language": "sl", "file": "sl.json", "name": "Slovenščina" },
  { "code": "sr", "language": "sr", "file": "sr.json", "name": "српски" },
  { "code": "sv", "language": "sv", "file": "sv.json", "name": "Svenska" },
  { "code": "tr", "language": "tr", "file": "tr.json", "name": "Türkçe" },
  { "code": "uk", "language": "uk", "file": "uk.json", "name": "українська"},
  { "code": "zh-Hans", "language": "zh-Hans", "file": "zh_Hans.json", "name": "简体中文" },
  { "code": "zh-Hant", "language": "zh-Hant", "file": "zh_Hant.json", "name": "繁体中文" }
]
